Generate k groups of quantitative data with optional standardized effect — generate_quantitative • edsamplr
…
generate_quantitative(k = 2,
                      effect_size = 0.3,
                      use_effect_size = TRUE)
#> $summary
#>          mean   sd skew kurtosis
#> input 1  0.00 1.00 0.00     0.00
#> k 1     -0.06 0.95 0.21     0.47
#> input 2  0.30 1.00 0.00     0.00
#> k 2      0.28 1.01 0.02     0.07
#> 
#> $sample
#> # A tibble: 200 × 2
#>    Group  Value
#>    <fct>  <dbl>
#>  1 1      0.654
#>  2 1     -0.861
#>  3 1      1.26 
#>  4 1     -0.914
#>  5 1      0.247
#>  6 1      0.817
#>  7 1      0.434
#>  8 1     -1.80 
#>  9 1      0.839
#> 10 1      0.076
#> # ℹ 190 more rows
#> 

generate_quantitative(k = 2,
                      skew = c(0.4, 0.25))
#> $summary
#>          mean   sd skew kurtosis
#> input 1  0.00 1.00 0.40     0.00
#> k 1     -0.01 0.93 0.20    -0.01
#> input 2  0.00 1.00 0.25     0.00
#> k 2      0.06 1.02 0.84     0.76
#> 
#> $sample
#> # A tibble: 200 × 2
#>    Group  Value
#>    <fct>  <dbl>
#>  1 1      1.59 
#>  2 1      2.24 
#>  3 1      0.4  
#>  4 1     -0.929
#>  5 1      0.579
#>  6 1     -1.06 
#>  7 1     -0.054
#>  8 1     -0.487
#>  9 1      0.374
#> 10 1      0.325
#> # ℹ 190 more rows
#> 

generate_quantitative(k = 3,
                      n = c(100, 150, 200))
#> $summary
#>           n  mean   sd  skew kurtosis
#> input 1 100  0.00 1.00  0.00     0.00
#> k 1     100 -0.15 0.94  0.00     0.55
#> input 2 150  0.00 1.00  0.00     0.00
#> k 2     150  0.15 1.03 -0.16     0.58
#> input 3 200  0.00 1.00  0.00     0.00
#> k 3     200  0.00 1.02 -0.23     0.12
#> 
#> $sample
#> # A tibble: 600 × 2
#>    Group  Value
#>    <fct>  <dbl>
#>  1 1      0.289
#>  2 1     -0.605
#>  3 1     -0.873
#>  4 1     -0.635
#>  5 1     -2.35 
#>  6 1     -1.16 
#>  7 1     -0.273
#>  8 1      0.635
#>  9 1     -2.81 
#> 10 1     -0.652
#> # ℹ 590 more rows
…
