…
generate_quantitative(k = 2,
                      effect_size = 0.3,
                      use_effect_size = TRUE)
#> $summary
#>         mean   sd skew kurtosis
#> input 1 0.00 1.00 0.00     0.00
#> k 1     0.05 0.99 0.20    -0.07
#> input 2 0.30 1.00 0.00     0.00
#> k 2     0.31 1.03 0.09     0.33
#> 
#> $sample
#> # A tibble: 200 × 2
#>    Group  Value
#>    <fct>  <dbl>
#>  1 1      0.347
#>  2 1     -0.643
#>  3 1     -0.928
#>  4 1      0.491
#>  5 1      0.512
#>  6 1     -1.15 
#>  7 1     -0.478
#>  8 1      0.654
#>  9 1     -1.77 
#> 10 1     -0.748
#> # ℹ 190 more rows
#> 

generate_quantitative(k = 2,
                      skew = c(0.4, 0.25))
#> $summary
#>          mean   sd  skew kurtosis
#> input 1  0.00 1.00  0.40     0.00
#> k 1      0.02 0.97 -0.01    -0.03
#> input 2  0.00 1.00  0.25     0.00
#> k 2     -0.08 1.03  0.70     1.55
#> 
#> $sample
#> # A tibble: 200 × 2
#>    Group  Value
#>    <fct>  <dbl>
#>  1 1     -0.853
#>  2 1     -0.1  
#>  3 1      0.376
#>  4 1      0.155
#>  5 1      0.475
#>  6 1     -1.73 
#>  7 1      0.093
#>  8 1      0.294
#>  9 1      0.672
#> 10 1      0.699
#> # ℹ 190 more rows
#> 

generate_quantitative(k = 3,
                      n = c(100, 150, 200))
#> $summary
#>           n  mean   sd  skew kurtosis
#> input 1 100  0.00 1.00  0.00     0.00
#> k 1     100 -0.15 0.94  0.00     0.55
#> input 2 150  0.00 1.00  0.00     0.00
#> k 2     150  0.15 1.03 -0.16     0.58
#> input 3 200  0.00 1.00  0.00     0.00
#> k 3     200  0.00 1.02 -0.23     0.12
#> 
#> $sample
#> # A tibble: 600 × 2
#>    Group  Value
#>    <fct>  <dbl>
#>  1 1      0.289
#>  2 1     -0.605
#>  3 1     -0.873
#>  4 1     -0.635
#>  5 1     -2.35 
#>  6 1     -1.16 
#>  7 1     -0.273
#>  8 1      0.635
#>  9 1     -2.81 
#> 10 1     -0.652
#> # ℹ 590 more rows
…
