…
generate_categorical(p = 1,
                     k = 4,
                     k_prop = c(0.2, 0.3, 0.4, 0.1),
                     k_names = c("freshman_female",
                                 "freshman_male",
                                 "sophomore_female",
                                 "sophomore_male"),
                     separate = TRUE)
#> $sample
#> # A tibble: 100 × 2
#>    `Condition 1` Result
#>    <fct>         <fct> 
#>  1 sophomore     male  
#>  2 sophomore     female
#>  3 freshman      male  
#>  4 freshman      female
#>  5 sophomore     female
#>  6 freshman      male  
#>  7 sophomore     female
#>  8 sophomore     female
#>  9 sophomore     female
#> 10 freshman      male  
#> # ℹ 90 more rows
…
