…
difficulty <- c(0.57, 0.47, 0.7, 0.41, 0.76)
discrimination <- c(0.2, 0.4, 0.4, 0.99, 0.91)
generate_2PL(difficulty = difficulty,
             discrimination = discrimination,
             n = 30,
             identify_groups = TRUE)
#> # A tibble: 30 × 7
#>    Item_1 Item_2 Item_3 Item_4 Item_5 Total Group 
#>     <dbl>  <dbl>  <dbl>  <dbl>  <dbl> <dbl> <chr> 
#>  1      1      1      1      1      1   100 High  
#>  2      1      1      1      1      1   100 High  
#>  3      1      1      1      1      1   100 High  
#>  4      1      1      1      1      1   100 High  
#>  5      1      1      1      0      1    80 High  
#>  6      1      1      1      0      1    80 High  
#>  7      1      0      1      1      1    80 High  
#>  8      1      0      1      1      1    80 High  
#>  9      1      0      1      1      1    80 High  
#> 10      1      1      1      0      1    80 Middle
#> # ℹ 20 more rows
```
