Generate k groups of quantitative data with optional standardized effect — generate_quantitative • edsamplr
…
generate_quantitative(k = 2, effect_size = 0.3, use_effect_size = TRUE)
#> $summary
#>          mean   sd  skew kurtosis
#> input 1  0.00 1.00  0.00     0.00
#> k 1     -0.11 0.97 -0.18    -0.51
#> input 2  0.30 1.00  0.00     0.00
#> k 2      0.29 1.07 -0.02    -0.37
#> 
#> $sample
#> # A tibble: 200 × 2
#>    Group   Value
#>    <fct>   <dbl>
#>  1 1     -1.47  
#>  2 1     -0.653 
#>  3 1     -0.683 
#>  4 1      0.0263
#>  5 1      0.474 
#>  6 1      0.713 
#>  7 1     -2.07  
#>  8 1      1.31  
#>  9 1      0.0708
#> 10 1     -0.301 
#> # ℹ 190 more rows
#> 

generate_quantitative(k = 2, skew = c(0.4, 0.25))
#> $summary
#>          mean   sd skew kurtosis
#> input 1  0.00 1.00 0.40     0.00
#> k 1      0.06 0.95 0.01    -0.42
#> input 2  0.00 1.00 0.25     0.00
#> k 2     -0.02 1.01 0.25     0.00
#> 
#> $sample
#> # A tibble: 200 × 2
#>    Group   Value
#>    <fct>   <dbl>
#>  1 1     -0.964 
#>  2 1      0.483 
#>  3 1     -0.840 
#>  4 1      0.404 
#>  5 1     -1.01  
#>  6 1      0.427 
#>  7 1     -0.0738
#>  8 1      0.226 
#>  9 1      1.24  
#> 10 1     -0.0890
#> # ℹ 190 more rows
…
